<?xml version="1.0" encoding="UTF-8" standalone="no"?>
<svg
   stroke-dasharray="none"
   shape-rendering="auto"
   font-family="Dialog"
   width="557.54999"
   text-rendering="auto"
   fill-opacity="1"
   contentScriptType="text/ecmascript"
   color-interpolation="auto"
   color-rendering="auto"
   preserveAspectRatio="xMidYMid meet"
   font-size="12px"
   diagram:semanticRoot="platform:/resource/ModelDiagram-1.2.0/model/amalthea.ecore#/"
   viewBox="0 0 557.54999 233.1642"
   fill="#000000"
   stroke="#000000"
   image-rendering="auto"
   stroke-miterlimit="10"
   zoomAndPan="magnify"
   version="1.0"
   stroke-linecap="square"
   stroke-linejoin="miter"
   contentStyleType="text/css"
   font-style="normal"
   height="233.1642"
   stroke-width="1"
   stroke-dashoffset="0"
   font-weight="normal"
   stroke-opacity="1"
   id="svg243"
   sodipodi:docname="model_sw_activity_graph_items__group.svg"
   inkscape:version="1.1 (c68e22c387, 2021-05-23)"
   xmlns:inkscape="http://www.inkscape.org/namespaces/inkscape"
   xmlns:sodipodi="http://sodipodi.sourceforge.net/DTD/sodipodi-0.dtd"
   xmlns:xlink="http://www.w3.org/1999/xlink"
   xmlns="http://www.w3.org/2000/svg"
   xmlns:svg="http://www.w3.org/2000/svg"
   xmlns:diagram="http://www.eclipse.org/sirius/diagram/1.1.0">
  <sodipodi:namedview
     id="namedview245"
     pagecolor="#ffffff"
     bordercolor="#666666"
     borderopacity="1.0"
     inkscape:pageshadow="2"
     inkscape:pageopacity="0.0"
     inkscape:pagecheckerboard="0"
     showgrid="false"
     inkscape:zoom="1"
     inkscape:cx="128.5"
     inkscape:cy="99.5"
     inkscape:window-width="1920"
     inkscape:window-height="1057"
     inkscape:window-x="1912"
     inkscape:window-y="-8"
     inkscape:window-maximized="1"
     inkscape:current-layer="svg243"
     fit-margin-top="5"
     fit-margin-left="5"
     fit-margin-right="5"
     fit-margin-bottom="5" />
  <!--Generated by the Batik Graphics2D SVG Generator-->
  <defs
     id="genericDefs">
    <defs
       id="defs1">
      <linearGradient
         x1="120"
         x2="306"
         y1="77"
         gradientUnits="userSpaceOnUse"
         y2="205"
         xlink:type="simple"
         xlink:actuate="onLoad"
         id="linearGradient1"
         xlink:show="other"
         spreadMethod="pad">
        <stop
           stop-opacity="1"
           stop-color="white"
           offset="0%"
           id="stop3" />
        <stop
           stop-opacity="1"
           stop-color="rgb(255,252,216)"
           offset="100%"
           id="stop5" />
      </linearGradient>
      <linearGradient
         x1="315"
         x2="421"
         y1="-4"
         gradientUnits="userSpaceOnUse"
         y2="74"
         xlink:type="simple"
         xlink:actuate="onLoad"
         id="linearGradient2"
         xlink:show="other"
         spreadMethod="pad">
        <stop
           stop-opacity="1"
           stop-color="white"
           offset="0%"
           id="stop8" />
        <stop
           stop-opacity="1"
           stop-color="rgb(228,228,228)"
           offset="100%"
           id="stop10" />
      </linearGradient>
      <linearGradient
         x1="10"
         x2="130"
         y1="-10"
         gradientUnits="userSpaceOnUse"
         y2="69"
         xlink:type="simple"
         xlink:actuate="onLoad"
         id="linearGradient3"
         xlink:show="other"
         spreadMethod="pad">
        <stop
           stop-opacity="1"
           stop-color="white"
           offset="0%"
           id="stop13" />
        <stop
           stop-opacity="1"
           stop-color="rgb(228,228,228)"
           offset="100%"
           id="stop15" />
      </linearGradient>
      <linearGradient
         x1="140"
         x2="306"
         y1="-21"
         gradientUnits="userSpaceOnUse"
         y2="81"
         xlink:type="simple"
         xlink:actuate="onLoad"
         id="linearGradient4"
         xlink:show="other"
         spreadMethod="pad">
        <stop
           stop-opacity="1"
           stop-color="white"
           offset="0%"
           id="stop18" />
        <stop
           stop-opacity="1"
           stop-color="rgb(228,228,228)"
           offset="100%"
           id="stop20" />
      </linearGradient>
      <clipPath
         clipPathUnits="userSpaceOnUse"
         id="clipPath1">
        <path
           d="m 119,104 h 190 v 75 H 119 Z"
           id="path23" />
      </clipPath>
      <clipPath
         clipPathUnits="userSpaceOnUse"
         id="clipPath2">
        <path
           d="m 119,104 h 188 v 73 H 119 Z"
           id="path26" />
      </clipPath>
      <clipPath
         clipPathUnits="userSpaceOnUse"
         id="clipPath3">
        <path
           d="m 186,109 h 54 v 18 h -54 z"
           id="path29" />
      </clipPath>
      <clipPath
         clipPathUnits="userSpaceOnUse"
         id="clipPath4">
        <path
           d="m 186,109 h 57 v 18 h -57 z"
           id="path32" />
      </clipPath>
      <clipPath
         clipPathUnits="userSpaceOnUse"
         id="clipPath5">
        <path
           d="m 124,132 h 154 v 18 H 124 Z"
           id="path35" />
      </clipPath>
      <clipPath
         clipPathUnits="userSpaceOnUse"
         id="clipPath6">
        <path
           d="m 124,132 h 156 v 18 H 124 Z"
           id="path38" />
      </clipPath>
      <clipPath
         clipPathUnits="userSpaceOnUse"
         id="clipPath7">
        <path
           d="m 124,148 h 178 v 18 H 124 Z"
           id="path41" />
      </clipPath>
      <clipPath
         clipPathUnits="userSpaceOnUse"
         id="clipPath8">
        <path
           d="m 124,148 h 180 v 18 H 124 Z"
           id="path44" />
      </clipPath>
      <clipPath
         clipPathUnits="userSpaceOnUse"
         id="clipPath9">
        <path
           d="m 120,130 h 186 v 46 H 120 Z"
           id="path47" />
      </clipPath>
      <clipPath
         clipPathUnits="userSpaceOnUse"
         id="clipPath10">
        <path
           d="M 314,9 H 424 V 63 H 314 Z"
           id="path50" />
      </clipPath>
      <clipPath
         clipPathUnits="userSpaceOnUse"
         id="clipPath11">
        <path
           d="M 314,9 H 422 V 61 H 314 Z"
           id="path53" />
      </clipPath>
      <clipPath
         clipPathUnits="userSpaceOnUse"
         id="clipPath12">
        <path
           d="m 339,14 h 58 v 18 h -58 z"
           id="path56" />
      </clipPath>
      <clipPath
         clipPathUnits="userSpaceOnUse"
         id="clipPath13">
        <path
           d="m 339,14 h 61 v 18 h -61 z"
           id="path59" />
      </clipPath>
      <clipPath
         clipPathUnits="userSpaceOnUse"
         id="clipPath14">
        <path
           d="m 319,37 h 95 v 18 h -95 z"
           id="path62" />
      </clipPath>
      <clipPath
         clipPathUnits="userSpaceOnUse"
         id="clipPath15">
        <path
           d="m 319,37 h 97 v 18 h -97 z"
           id="path65" />
      </clipPath>
      <clipPath
         clipPathUnits="userSpaceOnUse"
         id="clipPath16">
        <path
           d="M 315,35 H 421 V 60 H 315 Z"
           id="path68" />
      </clipPath>
      <clipPath
         clipPathUnits="userSpaceOnUse"
         id="clipPath17">
        <path
           d="M 9,9 H 133 V 52 H 9 Z"
           id="path71" />
      </clipPath>
      <clipPath
         clipPathUnits="userSpaceOnUse"
         id="clipPath18">
        <path
           d="M 9,9 H 131 V 50 H 9 Z"
           id="path74" />
      </clipPath>
      <clipPath
         clipPathUnits="userSpaceOnUse"
         id="clipPath19">
        <path
           d="M 16,14 H 124 V 32 H 16 Z"
           id="path77" />
      </clipPath>
      <clipPath
         clipPathUnits="userSpaceOnUse"
         id="clipPath20">
        <path
           d="M 16,14 H 126 V 32 H 16 Z"
           id="path80" />
      </clipPath>
      <clipPath
         clipPathUnits="userSpaceOnUse"
         id="clipPath21">
        <path
           d="M 10,35 H 130 V 49 H 10 Z"
           id="path83" />
      </clipPath>
      <clipPath
         clipPathUnits="userSpaceOnUse"
         id="clipPath22">
        <path
           d="M 139,9 H 309 V 52 H 139 Z"
           id="path86" />
      </clipPath>
      <clipPath
         clipPathUnits="userSpaceOnUse"
         id="clipPath23">
        <path
           d="M 139,9 H 307 V 50 H 139 Z"
           id="path89" />
      </clipPath>
      <clipPath
         clipPathUnits="userSpaceOnUse"
         id="clipPath24">
        <path
           d="M 144,14 H 302 V 32 H 144 Z"
           id="path92" />
      </clipPath>
      <clipPath
         clipPathUnits="userSpaceOnUse"
         id="clipPath25">
        <path
           d="M 144,14 H 304 V 32 H 144 Z"
           id="path95" />
      </clipPath>
      <clipPath
         clipPathUnits="userSpaceOnUse"
         id="clipPath26">
        <path
           d="M 140,35 H 306 V 49 H 140 Z"
           id="path98" />
      </clipPath>
      <clipPath
         clipPathUnits="userSpaceOnUse"
         id="clipPath27">
        <path
           d="M -1,-1 H 434 V 189 H -1 Z"
           id="path101" />
      </clipPath>
      <clipPath
         clipPathUnits="userSpaceOnUse"
         id="clipPath28">
        <path
           d="m 110,58 h 57 v 15 h -57 z"
           id="path104" />
      </clipPath>
      <clipPath
         clipPathUnits="userSpaceOnUse"
         id="clipPath29">
        <path
           d="m 185,48 h 9 v 15 h -9 z"
           id="path107" />
      </clipPath>
      <clipPath
         clipPathUnits="userSpaceOnUse"
         id="clipPath30">
        <path
           d="m 99,48 h 9 v 10 h -9 z"
           id="path110" />
      </clipPath>
      <clipPath
         clipPathUnits="userSpaceOnUse"
         id="clipPath31">
        <path
           d="M 51,48 H 62 V 59 H 51 Z"
           id="path113" />
      </clipPath>
      <clipPath
         clipPathUnits="userSpaceOnUse"
         id="clipPath32">
        <path
           d="m 215,48 h 11 v 11 h -11 z"
           id="path116" />
      </clipPath>
      <clipPath
         clipPathUnits="userSpaceOnUse"
         id="clipPath33">
        <path
           d="m 364,59 h 11 v 11 h -11 z"
           id="path119" />
      </clipPath>
    </defs>
  </defs>
  <g
     id="g1011"
     transform="matrix(1.3240237,0,0,1.3240237,-7.5120239,-7.5120239)">
    <g
       font-size="10px"
       fill="#837a85"
       font-family="'Segoe UI'"
       stroke-linejoin="round"
       stroke="#837a85"
       stroke-width="0"
       stroke-miterlimit="0"
       id="g129">
      <rect
         x="121"
         y="106"
         clip-path="url(#clipPath1)"
         width="186"
         rx="3.0210938"
         opacity="0.2549"
         ry="3.0210938"
         height="71"
         stroke="none"
         id="rect123" />
      <rect
         x="122"
         y="107"
         clip-path="url(#clipPath1)"
         width="186"
         rx="3.0210938"
         opacity="0.2549"
         ry="3.0210938"
         height="71"
         stroke="none"
         id="rect125" />
      <rect
         x="120"
         y="105"
         clip-path="url(#clipPath2)"
         fill="url(#linearGradient1)"
         width="186"
         rx="3.0210938"
         ry="3.0210938"
         height="71"
         stroke="none"
         id="rect127"
         style="fill:url(#linearGradient1)" />
    </g>
    <rect
       x="120"
       y="105"
       clip-path="url(#clipPath2)"
       fill="none"
       width="185"
       rx="3.0210938"
       ry="3.0210938"
       height="70"
       id="rect131"
       style="font-size:10px;font-family:'Segoe UI';stroke-width:1.1;stroke-linecap:butt" />
    <image
       x="187"
       y="110"
       clip-path="url(#clipPath3)"
       width="16"
       xlink:href="data:image/png;base64,iVBORw0KGgoAAAANSUhEUgAAABAAAAAQCAYAAAAf8/9hAAAAvUlEQVR42mP8//8/ AyWAiYFCwIIuMK/WgKCTkpovMOI0AASiaxfh1Ly0OQ6/F/79Z8RrO7o8hgv+/GVg +P+fFcxmhKkFeYoRQoPk8Rvwn4lh1YJpDLgCAiSP14Df/5gYwhNTcXphWs0J/GHw +y/+mEWXx3DBr7+MeMMAJI/fC0AF3X2rGXAFwh+CBgDDoKo4AKcXGgt3EgiDfwTC 4B8ToXTASCAdEPDCX2A8F2dl4nQBMxMBF0yafYCRlNwIAPWTSpioA+oRAAAAAElF TkSuQmCC"
       xlink:type="simple"
       xlink:actuate="onLoad"
       height="16"
       preserveAspectRatio="none"
       xlink:show="embed"
       id="image133"
       style="font-size:10px;font-family:'Segoe UI';stroke-width:1.1;stroke-linecap:butt" />
    <text
       xml:space="preserve"
       x="206"
       y="122"
       clip-path="url(#clipPath4)"
       stroke="none"
       id="text135"
       style="font-size:10px;font-family:'Segoe UI';stroke-width:1.1;stroke-linecap:butt">Group</text>
    <image
       x="125"
       y="133"
       clip-path="url(#clipPath5)"
       width="16"
       xlink:href="data:image/png;base64,iVBORw0KGgoAAAANSUhEUgAAABAAAAAQCAYAAAAf8/9hAAAAXUlEQVR42mNgGAUD DxjRBebW6P8npCm55SJcHwu65I8/TAzJjQtwap5bn4DCZ0JX8PUXC17b0eUxVH8G Kvj/nxXiP5hD/0M9+x8ij9cAkA3FWZk4XcDBwjKacqgNALytGBsVIOzJAAAAAElF TkSuQmCC"
       xlink:type="simple"
       xlink:actuate="onLoad"
       height="16"
       preserveAspectRatio="none"
       xlink:show="embed"
       id="image137"
       style="font-size:10px;font-family:'Segoe UI';stroke-width:1.1;stroke-linecap:butt" />
    <text
       xml:space="preserve"
       x="144"
       y="145"
       clip-path="url(#clipPath6)"
       stroke="none"
       id="text139"
       style="font-size:10px;font-family:'Segoe UI';stroke-width:1.1;stroke-linecap:butt">ordered : EBoolean = true</text>
    <image
       x="125"
       y="149"
       clip-path="url(#clipPath7)"
       width="16"
       xlink:href="data:image/png;base64,iVBORw0KGgoAAAANSUhEUgAAABAAAAAQCAYAAAAf8/9hAAAAXUlEQVR42mNgGAUD DxjRBebW6P8npCm55SJcHwu65I8/TAzJjQtwap5bn4DCZ0JX8PUXC17b0eUxVH8G Kvj/nxXiP5hD/0M9+x8ij9cAkA3FWZk4XcDBwjKacqgNALytGBsVIOzJAAAAAElF TkSuQmCC"
       xlink:type="simple"
       xlink:actuate="onLoad"
       height="16"
       preserveAspectRatio="none"
       xlink:show="embed"
       id="image141"
       style="font-size:10px;font-family:'Segoe UI';stroke-width:1.1;stroke-linecap:butt" />
    <text
       xml:space="preserve"
       x="144"
       y="161"
       clip-path="url(#clipPath8)"
       stroke="none"
       id="text143"
       style="font-size:10px;font-family:'Segoe UI';stroke-width:1.1;stroke-linecap:butt">interruptible : EBoolean = true</text>
    <line
       clip-path="url(#clipPath9)"
       fill="none"
       x1="121"
       x2="305"
       y1="131"
       y2="131"
       id="line145"
       style="font-size:10px;font-family:'Segoe UI';stroke-width:1.1;stroke-linecap:butt" />
    <rect
       x="316"
       y="11"
       clip-path="url(#clipPath10)"
       fill="#837a85"
       width="106"
       rx="3.0210938"
       opacity="0.2549"
       ry="3.0210938"
       height="50"
       stroke="none"
       id="rect147"
       style="font-size:10px;font-family:'Segoe UI';stroke-width:1.1;stroke-linecap:butt" />
    <rect
       x="317"
       y="12"
       clip-path="url(#clipPath10)"
       fill="#837a85"
       width="106"
       rx="3.0210938"
       opacity="0.2549"
       ry="3.0210938"
       height="50"
       stroke="none"
       id="rect149"
       style="font-size:10px;font-family:'Segoe UI';stroke-width:1.1;stroke-linecap:butt" />
    <rect
       x="315"
       y="10"
       clip-path="url(#clipPath11)"
       fill="url(#linearGradient2)"
       width="106"
       rx="3.0210938"
       ry="3.0210938"
       height="50"
       stroke="none"
       id="rect151"
       style="font-size:10px;font-family:'Segoe UI';fill:url(#linearGradient2);stroke-width:1.1;stroke-linecap:butt" />
    <rect
       x="315"
       y="10"
       clip-path="url(#clipPath11)"
       fill="none"
       width="105"
       rx="3.0210938"
       ry="3.0210938"
       height="49"
       stroke="#7d7d7d"
       id="rect153"
       style="font-size:10px;font-family:'Segoe UI';stroke-width:1.1;stroke-linecap:butt" />
    <image
       stroke="#7d7d7d"
       width="16"
       xlink:show="embed"
       xlink:type="simple"
       fill="#7d7d7d"
       clip-path="url(#clipPath12)"
       preserveAspectRatio="none"
       height="16"
       font-style="italic"
       x="340"
       y="15"
       xlink:href="data:image/png;base64,iVBORw0KGgoAAAANSUhEUgAAABAAAAAQCAYAAAAf8/9hAAAA3klEQVR42mP8//8/ AyWABUQwMjLCTQEayEiKAYwQPQhXAA1jmFujj1dTUvMFuCUsIBtBLgAZAtMcXbsI p+alzXEofCZ0Bf8I+ABdnglmO9T/DKmtF4A0KxgzMEDxfwT95y/2QEQRXLVgGgOu uPnzH9XRLOih3l9m+j88MRWnF6bVnMAfBr//MuENA3R5FnQFv/4yQv0P8hosccAi HCKP14DfQAXdfasZcAXCH4IG/GNiqCoOwOmFxsKdBMLgH4Ew+EcgDP4QCAOCXvgL jOfirEycLmBmIuCCSbMPkJQbAUo3Y/K+45+lAAAAAElFTkSuQmCC"
       xlink:actuate="onLoad"
       id="image155"
       style="font-size:10px;font-family:'Segoe UI';stroke-width:1.1;stroke-linecap:butt" />
    <text
       x="359"
       y="27"
       clip-path="url(#clipPath13)"
       font-style="italic"
       stroke="none"
       xml:space="preserve"
       id="text157"
       style="font-size:10px;font-family:'Segoe UI';stroke-width:1.1;stroke-linecap:butt">INamed</text>
    <image
       x="320"
       y="38"
       clip-path="url(#clipPath14)"
       width="16"
       xlink:href="data:image/png;base64,iVBORw0KGgoAAAANSUhEUgAAABAAAAAQCAYAAAAf8/9hAAAAXUlEQVR42mNgGAUD DxjRBebW6P8npCm55SJcHwu65I8/TAzJjQtwap5bn4DCZ0JX8PUXC17b0eUxVH8G Kvj/nxXiP5hD/0M9+x8ij9cAkA3FWZk4XcDBwjKacqgNALytGBsVIOzJAAAAAElF TkSuQmCC"
       xlink:type="simple"
       xlink:actuate="onLoad"
       height="16"
       preserveAspectRatio="none"
       xlink:show="embed"
       id="image159"
       style="font-size:10px;font-family:'Segoe UI';stroke-width:1.1;stroke-linecap:butt" />
    <text
       xml:space="preserve"
       x="339"
       y="50"
       clip-path="url(#clipPath15)"
       stroke="none"
       id="text161"
       style="font-size:10px;font-family:'Segoe UI';stroke-width:1.1;stroke-linecap:butt">name : EString</text>
    <line
       clip-path="url(#clipPath16)"
       fill="none"
       x1="316"
       x2="420"
       y1="36"
       y2="36"
       stroke="#7d7d7d"
       id="line163"
       style="font-size:10px;font-family:'Segoe UI';stroke-width:1.1;stroke-linecap:butt" />
    <rect
       x="11"
       y="11"
       clip-path="url(#clipPath17)"
       fill="#837a85"
       width="120"
       rx="3.0210938"
       opacity="0.2549"
       ry="3.0210938"
       height="39"
       stroke="none"
       id="rect165"
       style="font-size:10px;font-family:'Segoe UI';stroke-width:1.1;stroke-linecap:butt" />
    <rect
       x="12"
       y="12"
       clip-path="url(#clipPath17)"
       fill="#837a85"
       width="120"
       rx="3.0210938"
       opacity="0.2549"
       ry="3.0210938"
       height="39"
       stroke="none"
       id="rect167"
       style="font-size:10px;font-family:'Segoe UI';stroke-width:1.1;stroke-linecap:butt" />
    <rect
       x="10"
       y="10"
       clip-path="url(#clipPath18)"
       fill="url(#linearGradient3)"
       width="120"
       rx="3.0210938"
       ry="3.0210938"
       height="39"
       stroke="none"
       id="rect169"
       style="font-size:10px;font-family:'Segoe UI';fill:url(#linearGradient3);stroke-width:1.1;stroke-linecap:butt" />
    <rect
       x="10"
       y="10"
       clip-path="url(#clipPath18)"
       fill="none"
       width="119"
       rx="3.0210938"
       ry="3.0210938"
       height="38"
       stroke="#7d7d7d"
       id="rect171"
       style="font-size:10px;font-family:'Segoe UI';stroke-width:1.1;stroke-linecap:butt" />
    <image
       stroke="#7d7d7d"
       width="16"
       xlink:show="embed"
       xlink:type="simple"
       fill="#7d7d7d"
       clip-path="url(#clipPath19)"
       preserveAspectRatio="none"
       height="16"
       font-style="italic"
       x="17"
       y="15"
       xlink:href="data:image/png;base64,iVBORw0KGgoAAAANSUhEUgAAABAAAAAQCAYAAAAf8/9hAAAA2UlEQVR42mP8//8/ AyWABUQwMjKimAI0lJFYAxgh6lFdATSQYW6NPk5NSc0XGFFcANMEtR1MR9cuwqp5 aXMcpheQNRIC/9B8h9MF//+zMjDC1P6HeZaB4c9f7IEIDzhYgK5cMA2rC/78Z0I1 AD3E+0pNGLJa5uL0wrSaEyh8JnQFv/8y4Q0DdHkWdAW//jKC/Q/xDmYYgOTxGvAb qKC7bzVEE7YwIGjAPyaGquIAnF5oLNxJIAz+EQiDfwTC4A+BMCDohb/AeC7OysTp AmYmAi6YNPsAIynZGQCn3VpKGCzVQQAAAABJRU5ErkJggg=="
       xlink:actuate="onLoad"
       id="image173"
       style="font-size:10px;font-family:'Segoe UI';stroke-width:1.1;stroke-linecap:butt" />
    <text
       x="36"
       y="27"
       clip-path="url(#clipPath20)"
       font-style="italic"
       stroke="none"
       xml:space="preserve"
       id="text175"
       style="font-size:10px;font-family:'Segoe UI';stroke-width:1.1;stroke-linecap:butt">ActivityGraphItem</text>
    <line
       clip-path="url(#clipPath21)"
       fill="none"
       x1="11"
       x2="129"
       y1="36"
       y2="36"
       stroke="#7d7d7d"
       id="line177"
       style="font-size:10px;font-family:'Segoe UI';stroke-width:1.1;stroke-linecap:butt" />
    <rect
       x="141"
       y="11"
       clip-path="url(#clipPath22)"
       fill="#837a85"
       width="166"
       rx="3.0210938"
       opacity="0.2549"
       ry="3.0210938"
       height="39"
       stroke="none"
       id="rect179"
       style="font-size:10px;font-family:'Segoe UI';stroke-width:1.1;stroke-linecap:butt" />
    <rect
       x="142"
       y="12"
       clip-path="url(#clipPath22)"
       fill="#837a85"
       width="166"
       rx="3.0210938"
       opacity="0.2549"
       ry="3.0210938"
       height="39"
       stroke="none"
       id="rect181"
       style="font-size:10px;font-family:'Segoe UI';stroke-width:1.1;stroke-linecap:butt" />
    <rect
       x="140"
       y="10"
       clip-path="url(#clipPath23)"
       fill="url(#linearGradient4)"
       width="166"
       rx="3.0210938"
       ry="3.0210938"
       height="39"
       stroke="none"
       id="rect183"
       style="font-size:10px;font-family:'Segoe UI';fill:url(#linearGradient4);stroke-width:1.1;stroke-linecap:butt" />
    <rect
       x="140"
       y="10"
       clip-path="url(#clipPath23)"
       fill="none"
       width="165"
       rx="3.0210938"
       ry="3.0210938"
       height="38"
       stroke="#7d7d7d"
       id="rect185"
       style="font-size:10px;font-family:'Segoe UI';stroke-width:1.1;stroke-linecap:butt" />
    <image
       stroke="#7d7d7d"
       width="16"
       xlink:show="embed"
       xlink:type="simple"
       fill="#7d7d7d"
       clip-path="url(#clipPath24)"
       preserveAspectRatio="none"
       height="16"
       font-style="italic"
       x="145"
       y="15"
       xlink:href="data:image/png;base64,iVBORw0KGgoAAAANSUhEUgAAABAAAAAQCAYAAAAf8/9hAAAA3klEQVR42mP8//8/ AyWABUQwMjLCTQEayEiKAYwQPQhXAA1jmFujj1dTUvMFuCUsIBtBLgAZAtMcXbsI p+alzXEofCZ0Bf8I+ABdnglmO9T/DKmtF4A0KxgzMEDxfwT95y/2QEQRXLVgGgOu uPnzH9XRLOih3l9m+j88MRWnF6bVnMAfBr//MuENA3R5FnQFv/4yQv0P8hosccAi HCKP14DfQAXdfasZcAXCH4IG/GNiqCoOwOmFxsKdBMLgH4Ew+EcgDP4QCAOCXvgL jOfirEycLmBmIuCCSbMPkJQbAUo3Y/K+45+lAAAAAElFTkSuQmCC"
       xlink:actuate="onLoad"
       id="image187"
       style="font-size:10px;font-family:'Segoe UI';stroke-width:1.1;stroke-linecap:butt" />
    <text
       x="164"
       y="27"
       clip-path="url(#clipPath25)"
       font-style="italic"
       stroke="none"
       xml:space="preserve"
       id="text189"
       style="font-size:10px;font-family:'Segoe UI';stroke-width:1.1;stroke-linecap:butt">IActivityGraphItemContainer</text>
    <line
       clip-path="url(#clipPath26)"
       fill="none"
       x1="141"
       x2="305"
       y1="36"
       y2="36"
       stroke="#7d7d7d"
       id="line191"
       style="font-size:10px;font-family:'Segoe UI';stroke-width:1.1;stroke-linecap:butt" />
    <line
       clip-path="url(#clipPath27)"
       fill="none"
       x1="189"
       x2="189"
       y1="49"
       y2="79"
       id="line193"
       style="font-size:10px;font-family:'Segoe UI';stroke-width:1.1;stroke-linecap:butt"
       transform="matrix(1,0,0,0.86666667,0,6.5333333)" />
    <line
       clip-path="url(#clipPath27)"
       fill="none"
       x1="189"
       x2="103"
       y1="79"
       y2="79"
       id="line195"
       style="font-size:10px;font-family:'Segoe UI';stroke-width:1.1;stroke-linecap:butt"
       transform="translate(0,-4)" />
    <line
       clip-path="url(#clipPath27)"
       fill="none"
       x1="103"
       x2="103"
       y1="79"
       y2="49"
       id="line197"
       style="font-size:10px;font-family:'Segoe UI';stroke-width:1.1;stroke-linecap:butt"
       transform="matrix(1,0,0,0.86666667,0,6.5333333)" />
    <text
       xml:space="preserve"
       x="111"
       y="70"
       clip-path="url(#clipPath28)"
       stroke="none"
       id="text199"
       style="font-size:10px;font-family:'Segoe UI';stroke-width:1.1;stroke-linecap:butt">[0..*] items</text>
    <polygon
       clip-path="url(#clipPath29)"
       points="192,55 189,61 186,55 189,49 "
       stroke="none"
       id="polygon201"
       style="font-size:10px;font-family:'Segoe UI';stroke-width:1.1;stroke-linecap:butt" />
    <polygon
       fill="none"
       clip-path="url(#clipPath29)"
       points="192,55 189,61 186,55 189,49 "
       id="polygon203"
       style="font-size:10px;font-family:'Segoe UI';stroke-width:1.1;stroke-linecap:butt" />
    <line
       clip-path="url(#clipPath30)"
       fill="none"
       x1="106"
       x2="103"
       y1="56"
       y2="49"
       id="line205"
       style="font-size:10px;font-family:'Segoe UI';stroke-width:1.1;stroke-linecap:butt" />
    <line
       clip-path="url(#clipPath30)"
       fill="none"
       x1="103"
       x2="100"
       y1="49"
       y2="56"
       id="line207"
       style="font-size:10px;font-family:'Segoe UI';stroke-width:1.1;stroke-linecap:butt" />
    <line
       clip-path="url(#clipPath27)"
       fill="none"
       x1="217"
       x2="217"
       y1="105"
       y2="89"
       stroke="#888888"
       id="line209"
       style="font-size:10px;font-family:'Segoe UI';stroke-width:1.1;stroke-linecap:butt"
       transform="translate(-44)" />
    <line
       clip-path="url(#clipPath27)"
       fill="none"
       x1="217"
       x2="56"
       y1="89"
       y2="89"
       stroke="#888888"
       id="line211"
       style="font-size:10px;font-family:'Segoe UI';stroke-width:1.1;stroke-linecap:butt"
       transform="matrix(0.72670807,0,0,1,15.304348,0)" />
    <line
       clip-path="url(#clipPath27)"
       fill="none"
       x1="56"
       x2="56"
       y1="89"
       y2="49"
       stroke="#888888"
       id="line213"
       style="font-size:10px;font-family:'Segoe UI';stroke-width:1.1;stroke-linecap:butt" />
    <polygon
       fill="#ffffff"
       clip-path="url(#clipPath31)"
       points="60,57 52,57 56,49 "
       stroke="none"
       id="polygon215"
       style="font-size:10px;font-family:'Segoe UI';stroke-width:1.1;stroke-linecap:butt" />
    <polygon
       fill="none"
       clip-path="url(#clipPath31)"
       points="60,57 52,57 56,49 "
       stroke="#888888"
       id="polygon217"
       style="font-size:10px;font-family:'Segoe UI';stroke-width:1.1;stroke-linecap:butt" />
    <line
       clip-path="url(#clipPath27)"
       fill="none"
       x1="217"
       x2="217"
       y1="105"
       y2="67"
       stroke-dasharray="5, 5"
       stroke="#888888"
       id="line219"
       style="font-size:10px;font-family:'Segoe UI';stroke-width:1.1;stroke-linecap:butt;stroke-miterlimit:10;stroke-dasharray:4.4, 4.4;stroke-dashoffset:0"
       transform="matrix(1,0,0,1.3282866,7,-34.470096)" />
    <polygon
       fill="#ffffff"
       stroke-dasharray="5, 5"
       clip-path="url(#clipPath32)"
       points="220,49 224,57 216,57 "
       stroke="none"
       id="polygon225"
       style="font-size:10px;font-family:'Segoe UI';stroke-width:1.1;stroke-linecap:butt"
       transform="translate(4)" />
    <polygon
       fill="none"
       clip-path="url(#clipPath32)"
       points="220,49 224,57 216,57 "
       stroke="#888888"
       id="polygon227"
       style="font-size:10px;font-family:'Segoe UI';stroke-width:1.1;stroke-linecap:butt"
       transform="translate(4)" />
    <line
       clip-path="url(#clipPath27)"
       fill="none"
       x1="217"
       x2="217"
       y1="105"
       y2="78"
       stroke-dasharray="5, 5"
       stroke="#888888"
       id="line229"
       style="font-size:10px;font-family:'Segoe UI';stroke-width:1.1;stroke-linecap:butt;stroke-miterlimit:10;stroke-dasharray:8.8, 8.8;stroke-dashoffset:0"
       transform="matrix(1,0,0,0.62836474,22,39.021703)" />
    <line
       clip-path="url(#clipPath27)"
       fill="none"
       x1="217"
       x2="369"
       y1="78"
       y2="78"
       stroke-dasharray="5, 5"
       stroke="#888888"
       id="line231"
       style="font-size:10px;font-family:'Segoe UI';stroke-width:1.1;stroke-linecap:butt;stroke-miterlimit:10;stroke-dasharray:6.6, 6.6;stroke-dashoffset:0"
       transform="matrix(0.85876182,0,0,1,52.116892,10)" />
    <line
       clip-path="url(#clipPath27)"
       fill="none"
       x1="369"
       x2="369"
       y1="78"
       y2="60"
       stroke-dasharray="5, 5"
       stroke="#888888"
       id="line233"
       style="font-size:10px;font-family:'Segoe UI';stroke-width:1.1;stroke-linecap:butt;stroke-miterlimit:10;stroke-dasharray:4.4, 4.4;stroke-dashoffset:0"
       transform="matrix(1,0,0,1.5273203,0,-31.639218)" />
    <polygon
       fill="#ffffff"
       stroke-dasharray="5, 5"
       clip-path="url(#clipPath33)"
       points="373,68 365,68 369,60 "
       stroke="none"
       id="polygon235"
       style="font-size:10px;font-family:'Segoe UI';stroke-width:1.1;stroke-linecap:butt" />
    <polygon
       fill="none"
       clip-path="url(#clipPath33)"
       points="373,68 365,68 369,60 "
       stroke="#888888"
       id="polygon237"
       style="font-size:10px;font-family:'Segoe UI';stroke-width:1.1;stroke-linecap:butt" />
  </g>
</svg>
